mobile_cluster_name	mobile_cluster_length (bp)	mobile_cluster_read_count (reads)	mobile_cluster_read_depth (reads/kbp)	mobile_cluster_read_depth_in_this_cluster (reads/kbp)	cluster_name	cluster_length (bp)	cluster_read_count (reads)	cluster_read_depth (reads/kbp)	intra_read_count (reads)	intra_linkage_density (reads/kbp^2)	inter_read_count (reads)	raw_inter_linkage_density (reads/kbp^2)	raw_inter_vs_intra_ratio	mobile_element_copies_per_cell	adjusted_inter_connective_linkage_density (reads/kbp^2)	adjusted_inter_vs_intra_ratio
vMAG_20	94373	28057	297.2990156082778	55.712383122565576	bin_153	214203	56281	262.74608665611595	5133	0.22881983413517648	2010	0.0994312152641344	0.4345393205966354	0.2120388692809814	0.4689291902060373	2.049338039153612
vMAG_20	94373	28057	297.2990156082778	99.97739598163882	bin_151	222372	67121	301.841059126149	6544	0.2708363781999683	3607	0.17187720362407094	0.6346163863451452	0.33122530205493045	0.5189132670654696	1.9159659072177413
vMAG_14	12513	2312	184.7678414448973	129.9487806960377	bin_55	2355636	452384	192.0432528624966	58988	0.02134682432639314	659	0.022357116363780644	1.0473275097944375	0.6766641303929658	0.033040197284873035	1.5477804463880958
vMAG_65	17047	2197	128.87898163899806	35.14881317427219	bin_80	1765960	205965	116.63061450995492	8832	0.005684197068656079	72	0.0023916833103354604	0.4207600970634413	0.30136866998391826	0.007936071491648704	1.3961640308725323
vMAG_119	16239	14353	883.8598435864277	615.7709284493214	bin_27	3219356	2688546	835.119197752594	177843	0.03442782800350779	2290	0.043803336948170624	1.2723235675427325	0.7373449563923747	0.05940684420286572	1.7255472577826536
vMAG_37	174657	72403	414.54393468340805	72.78017335180743	bin_35	2959046	1145808	387.2220979329149	184976	0.04245982060588188	6148	0.011895868262057234	0.28016765243726255	0.18795459696211964	0.06329118018036413	1.4906134617911342
vMAG_37	174657	72403	414.54393468340805	316.40671329653696	bin_116	720102	367694	510.6137741597718	62725	0.24557254298738496	26728	0.21251346344926106	0.8653795773095767	0.6196595730641862	0.3429519573116452	1.39654031814649
vMAG_32	13560	5797	427.5073746312684	281.03003519682466	bin_43	2613696	1006945	385.2571224809618	144510	0.042465317944085805	1579	0.04455201665710686	1.0491388929612777	0.7294609724203406	0.061075257404496826	1.4382385523385173
vMAG_115	19558	541	27.661315062889866	16.27136180169992	bin_66	2143659	115096	53.691375354009196	10330	0.004561577605866604	100	0.0023851728465121977	0.5228833207714472	0.30305354806831036	0.007870466660811254	1.7253826068176759
vMAG_96	43865	23372	532.8165963752422	326.261802708269	bin_37	2828169	894470	316.27176452326574	85631	0.021520685409723454	4200	0.03385523238007275	1.573148426061575	1.0315868797205523	0.032818595355966367	1.5249790948172266
vMAG_93	40278	15703	389.86543522518497	263.80920794276653	bin_116	720102	367694	510.6137741597718	62725	0.24557254298738496	3338	0.1150865093037067	0.4686456714732098	0.5166511780393536	0.2227547602629109	0.9070833308687682
vMAG_60	49239	69930	1420.2156826905502	979.0055533907077	bin_19	3522783	4265519	1210.8378517779836	880627	0.14240793182889552	22107	0.12744849023170224	0.8949535927874636	0.8085356366693894	0.1576287852403171	1.10688206208703
vMAG_87	47250	1228	25.98941798941799	10.337527603634046	bin_145	282527	6785	24.015403837509336	400	0.010184839428770968	142	0.010637181597833147	1.0444132842963008	0.43045403998112247	0.02471153853800429	2.4263061495301645
vMAG_99	12951	41580	3210.562890896456	121.50941456299005	bin_56	2321835	968175	416.9869951999173	100726	0.03769571766766168	573	0.019055483161430502	0.5055079022352128	0.29139857108669404	0.0653931935574293	1.7347645197780297
vMAG_99	12951	41580	3210.562890896456	185.55102572882424	bin_45	2524531	1253993	496.7231537263753	212740	0.06691722449086618	875	0.026762337399561617	0.39993196973097	0.3735501845179474	0.07164321825753457	1.0706244737827324
vMAG_99	12951	41580	3210.562890896456	4.029107987254469	bin_126	551866	12910	23.393359982314546	441	0.002918160831848492	19	0.0026583775410395196	0.9109770482922923	0.17223297509637295	0.015434776874474964	5.289213913784832
vMAG_99	12951	41580	3210.562890896456	11.239090701288783	bin_61	2223391	82577	37.1401161559078	7983	0.0032419231339067024	53	0.001840588578990042	0.5677459035779259	0.30261323508276117	0.006082313546156244	1.8761436637847453
vMAG_99	12951	41580	3210.562890896456	18.237015100204438	bin_90	1555860	112140	72.07589371794377	10522	0.008725388544121266	86	0.00426800217735208	0.4891475211413534	0.2530251677706802	0.016867895849871434	1.9331971022925032
vMAG_99	12951	41580	3210.562890896456	159.0437363389922	bin_11	4180414	4445009	1063.293970405802	623862	0.07151624777366243	750	0.013852835163007988	0.1937019292014594	0.1495764490024276	0.09261374538168879	1.2950028596969543
vMAG_99	12951	41580	3210.562890896456	893.6137399100176	bin_17	3649413	4139583	1134.314751440848	628626	0.09459098447047039	4214	0.08915962088015124	0.9425805363933524	0.7878005101978236	0.11317537844417298	1.1964710915922891
vMAG_99	12951	41580	3210.562890896456	12.299382276882064	bin_48	2473813	261218	105.59326836749585	22737	0.007502956606180432	58	0.0018103303099022122	0.24128225777168744	0.11647884819775224	0.015542137803669896	2.0714684383043513
vMAG_99	12951	41580	3210.562890896456	516.361997313928	bin_21	3468834	3884744	1119.8990784799735	838271	0.1404412336122439	2435	0.05420160474451211	0.3859379709961956	0.46107904474283556	0.11755382371528676	0.8370321214911219
vMAG_99	12951	41580	3210.562890896456	420.29958056517665	bin_12	4125297	4633264	1123.1346494567542	548947	0.06464095138485593	1982	0.037097541198858136	0.57390153461679	0.37422011756869056	0.09913294196977168	1.5335934859553526
vMAG_99	12951	41580	3210.562890896456	42.62372133884991	bin_57	2292188	273896	119.49107141299056	18592	0.007148463686312588	201	0.006770839504776692	0.947174078500399	0.3567105126334656	0.018981328738505675	2.6553018342738293
vMAG_99	12951	41580	3210.562890896456	64.4657277960715	bin_30	3114280	1877427	602.8446382470427	145591	0.030093499598492154	304	0.00753724484664611	0.2504608951171557	0.10693588978998894	0.07048377173882858	2.3421593593042997
vMAG_76	53624	20128	375.354318961659	272.1665080293948	bin_93	1499440	347015	231.42973376727312	3487	0.003111932246938989	5109	0.06354005759046956	20.418200831001347	1.1760222146005093	0.05402964059828912	17.362087703366505
vMAG_21	11447	5970	521.5340263824583	428.52908714043974	bin_54	2366779	1664325	703.2025381330492	279088	0.10072480751452656	2184	0.0806126585287069	0.8003257640088408	0.6093963885257764	0.1322827966272024	1.313309003922639
vMAG_53	13119	6035	460.0198185837335	74.62057108480188	bin_46	2521602	570437	226.2200775538725	61523	0.019424776959082988	443	0.01339141453291584	0.6893986253290821	0.32985830387681475	0.040597475872297124	2.0899841453939487
vMAG_53	13119	6035	460.0198185837335	277.7637059115989	bin_20	3508517	2234500	636.8787724272107	393054	0.06411656547897811	1649	0.0358258364043054	0.5587610025064679	0.4361327743002216	0.08214433428395339	1.2811717794036557
vMAG_148	42510	21037	494.87179487179486	426.77017172430016	bin_20	3508517	2234500	636.8787724272107	393054	0.06411656547897811	7802	0.052310787231636575	0.8158700772702447	0.6700963985623748	0.07806457002882596	1.2175413552745737
vMAG_2	11848	2932	247.4679270762998	157.0210895986848	bin_9	4258818	4078294	957.6117129212847	491259	0.05428699260176	467	0.009255134917466103	0.17048531285127863	0.16397156329644003	0.0564435364974473	1.0397248731663464
vMAG_48	10270	7129	694.157740993184	187.2532833020638	bin_108	978550	607794	621.1169587655204	25713	0.05397061305771093	553	0.05502647166333233	1.0195635836949335	0.3014782975403419	0.18252216531761806	3.3818805267682728
vMAG_39	26518	2324	87.63858511199939	46.69793221296318	bin_48	2473813	261218	105.59326836749585	22737	0.007502956606180432	438	0.006676770934688523	0.8898853192338401	0.44224345864966075	0.015097500718439728	2.0122068553619807
vMAG_91	10633	1812	170.41286560707232	124.02403195098634	bin_53	2368909	365331	154.2190941061898	49321	0.017748645950538832	516	0.020485450064641374	1.1541979101802669	0.8042067207682324	0.025472866037568417	1.4352005278912607
vMAG_38	10980	2795	254.55373406193078	168.53557638285005	bin_116	720102	367694	510.6137741597718	62725	0.24557254298738496	674	0.0852439448228542	0.3471232727643871	0.33006468863903976	0.2582643577364841	1.0516825480353116
vMAG_1	16188	3704	228.8114652829256	124.12648116655441	bin_9	4258818	4078294	957.6117129212847	491259	0.05428699260176	581	0.008427404809566608	0.15523801201124907	0.1296208886041033	0.06501579259579175	1.1976311355601585
vMAG_46	20455	2625	128.33048154485456	63.37307730610102	bin_26	3227053	1083577	335.77911487663823	127256	0.024546595841028473	240	0.0036358475049485407	0.14812023339184954	0.18873442241749797	0.019264358130207486	0.7848077287363824
vMAG_61	18526	8645	466.6414768433553	369.02999883699164	bin_27	3219356	2688546	835.119197752594	177843	0.03442782800350779	1637	0.02744719802039334	0.7972387342470978	0.4418890139636302	0.06211332971190904	1.804160567596086
vMAG_90	24185	11295	467.0250155054786	394.33155657027805	bin_35	2959046	1145808	387.2220979329149	184976	0.04245982060588188	3884	0.0542726981528282	1.2782130818826376	1.0183601573239627	0.053294208107518164	1.2551679999358125
vMAG_139	14221	1834	128.96420786161312	113.12649812422202	bin_52	2386420	564517	236.55391758366088	96563	0.0341468443848194	650	0.01915297933719248	0.5609004194164215	0.4782271174359779	0.04004996504564918	1.1728745588993317
vMAG_100	24450	1200	49.079754601226995	28.79886427014146	bin_86	1615599	128483	79.52654093002039	15554	0.011978912787047899	71	0.0017974048514344198	0.15004741109542505	0.36212896893734015	0.004963438458703999	0.4143479919204918
vMAG_57	100357	4657	46.4043365186285	27.28749627271501	bin_66	2143659	115096	53.691375354009196	10330	0.004561577605866604	875	0.004067285711567192	0.8916401436065216	0.5082286697406685	0.008002865547987655	1.7544074088962647
vMAG_59	87888	13235	150.58938649189878	134.967176940559	bin_84	1629366	288407	177.0056574152155	50413	0.038233901522923906	4337	0.030285949289182153	0.7921229088018549	0.7625020516940673	0.03971917088209167	1.0388469211879212
vMAG_12	53602	7630	142.34543487183313	58.03264935320153	bin_139	330161	30608	92.70628572120874	2200	0.041497833195232765	912	0.051533314084789165	1.2418314431585615	0.6259839761860418	0.08232369524659129	1.9838070787765507
vMAG_81	32059	2711	84.56283726878567	41.5688104551615	bin_144	288901	19458	67.35179179026726	536	0.013510028525630761	175	0.01889465785345124	1.3985653559209696	0.617189377598243	0.030614036046729635	2.2660230501104968
vMAG_24	53512	20019	374.10300493347285	288.6378852503896	bin_11	4180414	4445009	1063.293970405802	623862	0.07151624777366243	5792	0.025891551577014664	0.36203733253675885	0.2714563359559277	0.09538017039034331	1.3336853282935985
vMAG_95	14383	2921	203.08697768198567	130.9097242897817	bin_140	316942	61988	195.5815259574307	8211	0.16674612394302765	740	0.16233136672670276	0.9735240789295151	0.6693358365466218	0.24252603530723366	1.4544628059246392
vMAG_7	13248	7132	538.3454106280193	400.8589530055403	bin_45	2524531	1253993	496.7231537263753	212740	0.06691722449086618	1866	0.05579311534513235	0.8337631419956426	0.8070067803329282	0.0691358693691707	1.0331550642631233
vMAG_94	17648	6703	379.8164097914778	314.2015314958128	bin_127	550504	195973	355.9883306933283	13486	0.09048659367710897	838	0.0862557477865927	0.9532433953076678	0.8826175028936176	0.0977272119619286	1.0800186855376273
vMAG_71	16979	343	20.201425290064197	6.4644560928205435	bin_124	572746	9353	16.330100952254575	319	0.0019755714744692445	8	0.0008226513483394319	0.4164118377749126	0.3958613674049605	0.0020781299113178464	1.051913301125263
vMAG_33	19835	7213	363.65011343584575	256.00750800298806	bin_44	2531106	1187036	468.97917353125473	148354	0.04646485888771852	1886	0.037566362959572816	0.8084897675112119	0.5458824665396931	0.06881767644545006	1.4810693089964335
vMAG_68	10711	2828	264.0276351414434	123.09970127173406	bin_153	214203	56281	262.74608665611595	5133	0.22881983413517648	435	0.18959797241888482	0.8285906382874085	0.4685120255771797	0.404681122507605	1.7685578876372123
vMAG_56	12945	2394	184.93626882966396	102.57476574565374	bin_9	4258818	4078294	957.6117129212847	491259	0.05428699260176	340	0.006167196430744643	0.113603574911326	0.1071151953987068	0.05757536461366619	1.0605738475149862
vMAG_16	169552	31398	185.18212701708032	75.09296957065895	bin_18	3548780	1633077	460.1798364508366	190619	0.030406753267074735	4667	0.007756321583509044	0.25508549089020305	0.16318179029706686	0.047531783842970014	1.5631982614348612
vMAG_125	27525	13322	483.99636693914624	397.6936114295411	bin_45	2524531	1253993	496.7231537263753	212740	0.06691722449086618	4539	0.06532089808070828	0.9761447606008257	0.800634334127727	0.0815864312787359	1.2192142142696307
vMAG_85	109020	8937	81.97578425976884	42.892778142330975	bin_139	330161	30608	92.70628572120874	2200	0.041497833195232765	1306	0.036283671636925696	0.8743509924054043	0.46267389323870023	0.0784216965062397	1.8897781032877812
vMAG_13	107160	32928	307.2788353863382	163.96978746209723	bin_26	3227053	1083577	335.77911487663823	127256	0.024546595841028473	6603	0.019094245151047847	0.777877522191192	0.48832634371062067	0.03910140297973149	1.5929460538220679
vMAG_121	25291	12300	486.3390138784548	456.93775752842134	bin_40	2717275	1636869	602.3935744449863	369812	0.10038691570577775	5626	0.08186535192531515	0.8154982285266426	0.7585369049618761	0.10792533809469651	1.075093674667852
vMAG_129	31387	2901	92.42680090483321	43.4125883037853	bin_51	2390487	318200	133.1109518688033	25046	0.008794136715943866	341	0.004544835675447179	0.5168029361207612	0.32613836573397487	0.013935299102940616	1.584612515481567
vMAG_28	31938	7487	234.42294445488133	170.19013896904025	bin_32	3044241	1213341	398.5692985542209	173365	0.03758165971012576	2223	0.022864026530271517	0.6083825649698803	0.42700263062506755	0.053545399701172856	1.4247747468892633
vMAG_118	21293	14326	672.8032686798479	628.2157132906867	bin_21	3468834	3884744	1119.8990784799735	838271	0.1404412336122439	6298	0.08526725556672457	0.607138326640922	0.5609574338996304	0.15200307619415748	1.082325128343971
vMAG_6	48293	34533	715.0725778063073	642.5605550257746	bin_21	3468834	3884744	1119.8990784799735	838271	0.1404412336122439	14453	0.08627605932631528	0.614321429022207	0.573766482510116	0.1503678969689453	1.0706819721059186
vMAG_67	51716	26117	505.0081212777477	392.34108070943364	bin_20	3508517	2234500	636.8787724272107	393054	0.06411656547897811	9545	0.05260504794597091	0.8204595419762233	0.616037302066422	0.08539263413029323	1.331834191247984
vMAG_146	38982	10050	257.8112975219332	207.8262365435631	bin_20	3508517	2234500	636.8787724272107	393054	0.06411656547897811	3426	0.025049534303605455	0.3906874006190872	0.32631993016742555	0.0767637278261038	1.1972526484013295
vMAG_11	195821	502891	2568.11577920652	69.74999997773996	bin_49	2453863	1147510	467.6340936718961	144430	0.048063413300759555	6128	0.012752906638468182	0.2653350181075601	0.14915507855737808	0.08550098837943557	1.7789204408852164
vMAG_11	195821	502891	2568.11577920652	631.4947370700049	bin_8	4351256	11709989	2691.174456294918	1816874	0.1921856846118829	55481	0.06511340116376563	0.33880463727182125	0.23465395771458722	0.2774869079470798	1.4438479562484683
vMAG_11	195821	502891	2568.11577920652	713.9244857382153	bin_4	5102299	16787092	3290.1035396004822	3342089	0.25725417271698503	62723	0.0627771583266354	0.2440277553658922	0.21699149499255796	0.2893069994692116	1.1245959449897402
vMAG_11	195821	502891	2568.11577920652	394.938886949677	bin_13	4064455	8308696	2044.2337287533014	1822760	0.2216670477801402	34698	0.04359562006447547	0.19667163207639077	0.19319654176263634	0.22565424653427588	1.0179873318748323
vMAG_135	13813	1726	124.95475276913054	23.743415179963613	bin_178	107002	14262	133.287228276107	546	0.09955387480025062	118	0.0798366122890795	0.8019437962537096	0.17813721154722104	0.4481748175782813	4.501831982708051
vMAG_122	14168	17102	1207.0863918690006	120.63829615707087	bin_35	2959046	1145808	387.2220979329149	184976	0.04245982060588188	686	0.016363034684832817	0.38537691519511685	0.3115480671197931	0.05252170182311251	1.2369741810881976
vMAG_122	14168	17102	1207.0863918690006	786.6109310649825	bin_17	3649413	4139583	1134.314751440848	628626	0.09459098447047039	4473	0.0865102038192424	0.9145713442304784	0.6934679550502191	0.12475011020945816	1.318837211683772
vMAG_26	30326	3162	104.26696564004484	15.191213536960175	bin_66	2143659	115096	53.691375354009196	10330	0.004561577605866604	44	0.000676833497135054	0.14837706504534406	0.2829358241765701	0.002392180273052544	0.5244195056499713
vMAG_138	18164	5253	289.19841444615724	205.80090328250807	bin_116	720102	367694	510.6137741597718	62725	0.24557254298738496	1261	0.09640722366259559	0.39258144452878846	0.40304612546177154	0.239196502762907	0.9740360215074798
vMAG_55	11154	2599	233.0105791644253	136.46336916803065	bin_22	3443744	1332807	387.0226706747075	147730	0.02499521314505668	547	0.014240519297269697	0.5697298604587436	0.3525978696031688	0.04038742296797393	1.6158063039346946
vMAG_3	28144	10719	380.8627060830017	51.568220508865075	bin_26	3227053	1083577	335.77911487663823	127256	0.024546595841028473	542	0.005967705269749257	0.24311742892570545	0.15357780822017683	0.0388578619457419	1.5830244730225616
vMAG_3	28144	10719	380.8627060830017	11.322173875562628	bin_48	2473813	261218	105.59326836749585	22737	0.007502956606180432	119	0.0017092054614333688	0.22780425786088648	0.10722439082156364	0.015940453924123715	2.1245563263678
vMAG_47	18261	23688	1297.1907343518974	544.9867710489128	bin_94	1464994	490258	334.64846955004595	40139	0.037523814325408834	2943	0.1100094161129936	2.9317226430923347	1.628535076767806	0.06755114930120634	1.8002207535566241
vMAG_42	13747	4210	306.2486360660508	269.23193515012616	bin_25	3251470	1741459	535.5912864027655	368376	0.06992274730816654	1251	0.02798785567522107	0.4002682496423058	0.5026816940178211	0.055677093493340615	0.7962658167299711
vMAG_5	12611	992	78.66148600428198	12.236231156221642	bin_121	636378	75103	118.01633620269713	2072	0.010352423474165668	28	0.003488938774051146	0.3370166205775629	0.10368252014878256	0.03365021190693071	3.250467099892538
vMAG_43	32098	8316	259.0815627141878	206.03073403220986	bin_36	2882673	880137	305.319750106932	147246	0.03557176693727899	2470	0.02669461121857952	0.7504437793502952	0.6748031660580484	0.0395591078425426	1.1120928547714313
vMAG_103	142872	32610	228.24626238871159	122.07097448628905	bin_113	810070	129186	159.47510708951077	12265	0.037806518196415624	6182	0.05341451969830127	1.4128389030906692	0.7654547265346723	0.06978142252790935	1.845751099463193
vMAG_40	39336	2984	75.85926377872687	66.32650673750632	bin_172	118288	9367	79.18808332206142	1507	0.224804359638972	988	0.2123371874097438	0.9445421243197861	0.8375819183266945	0.25351214342585987	1.127701187970694
vMAG_72	32421	2763	85.22254094568335	11.255807294712895	bin_66	2143659	115096	53.691375354009196	10330	0.004561577605866604	28	0.0004028801995306732	0.0883203650887212	0.20963901968423707	0.0019217805928376326	0.42129735781893696
vMAG_117	12021	767	63.8050079028367	8.890861756952654	bin_79	1778811	73015	41.04708144935016	7767	0.004924918762601517	17	0.0007950208487368711	0.16142821578581995	0.2166015571149313	0.0036704299790191433	0.7452772636355715
vMAG_22	38742	25310	653.2961643694182	320.8000025898273	bin_24	3296494	1639426	497.3241267843958	351826	0.06491355434927773	5129	0.040160431709312105	0.6186755926693291	0.6450521607790471	0.06225920034251068	0.9591094027530078
vMAG_136	28371	37855	1334.2850093405239	1222.684186980049	bin_6	4809067	5030027	1045.9465422295011	897483	0.07778230417472844	13903	0.10189973422787121	1.3100631989374592	1.1689738792709428	0.08717024052874758	1.1206950148060708
vMAG_52	62823	38362	610.6362319532656	301.76089847973816	bin_29	3121469	1594980	510.9709563029458	186067	0.03826710807729947	7762	0.03958183651284165	1.0343566185583304	0.5905636998687444	0.06702382236097293	1.7514734122470126
vMAG_111	13147	6392	486.1945691032175	330.83164288602393	bin_17	3649413	4139583	1134.314751440848	628626	0.09459098447047039	1810	0.03772496948607558	0.3988220409932687	0.2916577100542768	0.1293467245527473	1.3674318464581265
vMAG_44	96192	6193	64.38165335994677	39.31948045319489	bin_169	131129	7736	58.99534046625842	768	0.09548294917194969	1230	0.09751409793184262	1.021272371428695	0.6664845078008005	0.14631112470057253	1.53232724763339
vMAG_86	40552	4047	99.79779049122115	59.458473071611756	bin_113	810070	129186	159.47510708951077	12265	0.037806518196415624	849	0.025844781398482758	0.6836064951607488	0.37283858375613876	0.0693189560428836	1.8335186457200816
vMAG_131	18511	1950	105.3427691642807	56.337813729623804	bin_113	810070	129186	159.47510708951077	12265	0.037806518196415624	315	0.021006714067919055	0.5556373628162	0.3532702674280213	0.05946357790271485	1.5728393075972942
vMAG_8	38060	37166	976.5107724645297	897.6674579801223	bin_15	3808041	3363012	883.1343990256407	648353	0.08956042952683539	13469	0.09293192929177516	1.0376449709179827	1.0164562256554788	0.09142737970033726	1.0208457036591418
vMAG_140	18471	19975	1081.4249363867684	860.3781080084872	bin_11	4180414	4445009	1063.293970405802	623862	0.07151624777366243	6360	0.08236589347101227	1.1517088219125706	0.8091629708763676	0.10179147642137593	1.4233335723027554
vMAG_50	21099	6047	286.60126072325704	252.94391858542946	bin_89	1557490	497098	319.1660941643285	69367	0.05734215946811711	1969	0.059918175003790326	1.0449235878028889	0.7925150046019508	0.07560509852287892	1.3184906048910872
vMAG_116	11495	14751	1283.2535885167465	1183.223078793502	bin_21	3468834	3884744	1119.8990784799735	838271	0.1404412336122439	6695	0.16790285791587453	1.1955381877337519	1.0565443811235897	0.1589169947951614	1.1315551046349308
vMAG_15	98399	73570	747.6701999004055	643.0310130046915	bin_3	5199291	6657100	1280.3861141836455	1290669	0.09562406105450366	27844	0.05442479664819502	0.5691537887851684	0.502216484450613	0.10836919602057996	1.1332837658799269
vMAG_19	17760	11868	668.2432432432432	472.853104782635	bin_33	3040766	1287756	423.4972372093084	179488	0.03897837689070407	3163	0.05856973106343824	1.5026210872676564	1.1165435408706883	0.05245628936043566	1.3457792126009722
vMAG_58	17576	4063	231.16750113791534	14.487336583575075	bin_77	1927671	240293	124.6545702041479	23445	0.012672952408415544	23	0.0006788516504961618	0.053566969133835504	0.11621985908618541	0.00584109855091757	0.4609106357125397
vMAG_25	10908	1635	149.8899889988999	120.50508108364794	bin_91	1542601	211611	137.17805187472328	25966	0.021896100337932035	447	0.026564936694447223	1.2132268433400928	0.8784574459017556	0.030240436595284068	1.3810877794936205
vMAG_4	176053	103044	585.3010173072881	352.45283927436674	bin_9	4258818	4078294	957.6117129212847	491259	0.05428699260176	23271	0.031037200032183982	0.5717244324044163	0.3680540186785896	0.08432783900476258	1.5533709819473154
vMAG_18	12659	23396	1848.1712615530453	1091.6172514018833	bin_12	4125297	4633264	1123.1346494567542	548947	0.06464095138485593	5229	0.1001299550034865	1.5490173467178412	0.97193800576795	0.10302092768187573	1.5937408945068754
vMAG_70	48042	5449	113.42158944257109	25.199118339426565	bin_74	1953663	114540	58.62833047460079	11999	0.006331441583534882	493	0.005252622489599689	0.829609247799001	0.4298112897883632	0.012220764354947617	1.930170908743454
vMAG_70	48042	5449	113.42158944257109	59.649839963713596	bin_52	2386420	564517	236.55391758366088	96563	0.0341468443848194	1167	0.0101789480311448	0.2980933733270544	0.2521617083032139	0.04036674759081598	1.1821516253713258
vMAG_9	139043	30992	222.89507562408753	169.6519522393978	bin_14	3935224	951208	241.71635464715604	126891	0.01642903075379045	8412	0.01537378050398069	0.9357691719235296	0.7018637712249391	0.021904222919426872	1.3332632489213159
vMAG_113	19562	5231	267.4061956855127	240.5852739560949	bin_25	3251470	1741459	535.5912864027655	368376	0.06992274730816654	1498	0.023551512735092022	0.33682190190975736	0.44919564612777213	0.052430411866442886	0.7498334073655504
vMAG_128	19687	811	41.19469700817798	32.50519060801544	bin_81	1762922	59393	33.690089521827964	6586	0.004257334256980203	202	0.005820211016951729	1.3671021972045247	0.9648294519061807	0.006032372877354579	1.4169366352815904
vMAG_80	17482	738	42.21484955954696	17.824047591808718	bin_107	1005329	37583	37.3837818266458	887	0.0017630309163029255	19	0.0010810711421159033	0.6131889872827123	0.476785566384415	0.0022674158328951483	1.286089660667958
vMAG_101	35106	25803	735.0025636643309	596.5990390923764	bin_54	2366779	1664325	703.2025381330492	279088	0.10072480751452656	8966	0.10790949965099048	1.0713299167678005	0.8484028522938822	0.12719134472406418	1.262760861625083
vMAG_66	36500	9546	261.5342465753425	231.98163772371552	bin_23	3339089	1302220	389.9925997779634	251970	0.045415739427357715	3658	0.030013928374533226	0.6608706310405973	0.5948359990825234	0.05045748478711239	1.1110131734796242
vMAG_120	18278	898	49.130101761680706	27.820660033722813	bin_96	1384166	58973	42.60543894301695	4178	0.004377308370179691	141	0.005573169637686694	1.2731955727985214	0.6529837674230237	0.008534928302553372	1.949811980507786
vMAG_107	13162	2449	186.0659474244036	101.75481499772071	bin_113	810070	129186	159.47510708951077	12265	0.037806518196415624	455	0.04267435456825411	1.1287565373396378	0.6380608036877342	0.06688132905455646	1.7690422775006394
vMAG_98	51183	26506	517.8672606138757	400.3331289860186	bin_116	720102	367694	510.6137741597718	62725	0.24557254298738496	7146	0.1938845741260644	0.7895205700420028	0.7840233641263931	0.2472943830469931	1.007011533287321
vMAG_30	19184	8711	454.0763135946622	381.0314714582946	bin_35	2959046	1145808	387.2220979329149	184976	0.04245982060588188	2989	0.052654444180780836	1.2401004862815344	0.9840127242022929	0.05350992206271121	1.2602484254325508
vMAG_79	18348	1401	76.3570961412688	10.810105745842549	bin_115	728470	52098	71.5170151138688	1439	0.005469600365051051	63	0.004713463482324956	0.8617564662388205	0.15115431941099317	0.031183121333826436	5.701169967202053
vMAG_79	18348	1401	76.3570961412688	42.3824780829065	bin_82	1687793	130666	77.41826159961559	10987	0.0078063861290638146	247	0.007976071536356663	1.021736742775392	0.5474480724211579	0.014569549037010004	1.8663628465374495
vMAG_97	15345	3297	214.85826001955033	107.7669574626361	bin_26	3227053	1083577	335.77911487663823	127256	0.024546595841028473	319	0.00644195507974298	0.26243781913643427	0.32094598111686773	0.02007177362784062	0.8177009047540352
vMAG_27	29163	50714	1738.9843294585605	1668.2459838534664	bin_13	4064455	8308696	2044.2337287533014	1822760	0.2216670477801402	24621	0.20771658347944205	0.9370656827868485	0.8160739940783898	0.2545315559455132	1.148260684185994
vMAG_62	16605	3584	215.83860283047275	139.7958210503418	bin_55	2355636	452384	192.0432528624966	58988	0.02134682432639314	910	0.023264532487160462	1.0898357587735557	0.7279392478861829	0.03195944243247892	1.4971520795701858
vMAG_88	28815	569	19.746659725837237	3.15106272220807	bin_124	572746	9353	16.330100952254575	319	0.0019755714744692445	15	0.000908888420318533	0.46006354721370646	0.19296039451446417	0.004710233012352197	2.384238218269296
vMAG_64	12988	2564	197.41299661225747	145.48799005915748	bin_46	2521602	570437	226.2200775538725	61523	0.019424776959082988	594	0.018137090697168946	0.9337090837837434	0.643125895951966	0.028201462281847806	1.4518294002166576
vMAG_106	32722	10730	327.9139416906057	207.34047080248527	bin_22	3443744	1332807	387.0226706747075	147730	0.02499521314505668	2349	0.02084550001781457	0.8339796863039433	0.5357321069616485	0.03891030563024821	1.5567102950647782
vMAG_17	96957	305478	3150.6544138123086	2757.9295571474477	bin_2	5872183	26675438	4542.678251001374	5471826	0.3178034727938082	121771	0.21387751123517695	0.6729867026152394	0.6071153193690305	0.3522848203821605	1.1084989641089413
vMAG_105	13543	96710	7140.958428708558	5680.629754578292	bin_2	5872183	26675438	4542.678251001374	5471826	0.3178034727938082	36095	0.45387115864010547	1.4281504058156669	1.2505023337996857	0.3629510688404759	1.142061367831432
vMAG_78	10938	5197	475.1325653684403	393.1046127346838	bin_16	3743154	1867670	498.9562278228467	407079	0.05823362516007075	2123	0.051853058750723206	0.8904315781164431	0.7878539054416909	0.06581557620337374	1.1301988502769997
vMAG_45	17604	4571	259.65689615996365	98.38491693500357	bin_37	2828169	894470	316.27176452326574	85631	0.021520685409723454	546	0.010966699039181202	0.5095887435920716	0.3110771430491264	0.03525395318886962	1.638142676112965
vMAG_45	17604	4571	259.65689615996365	14.235180289130554	bin_50	2426565	298084	122.841959724961	23595	0.008074352226560503	79	0.0018493699739370818	0.22904251908327672	0.11588206766647684	0.015959069519365165	1.9765139136323482
vMAG_41	63624	19569	307.5726141078838	276.0649787959403	bin_25	3251470	1741459	535.5912864027655	368376	0.06992274730816654	6843	0.033078500893639264	0.4730720998111569	0.5154396380308902	0.06417531453344857	0.9178031041974418
vMAG_134	12391	1668	134.61383262045032	109.41412315390203	bin_32	3044241	1213341	398.5692985542209	173365	0.03758165971012576	508	0.013467231465631639	0.3583458412828722	0.2745171882299847	0.04905788068304516	1.3053675931674544
vMAG_109	46465	8616	185.42989346820187	150.49218793059555	bin_15	3808041	3363012	883.1343990256407	648353	0.08956042952683539	1331	0.007522297378067081	0.08399130528748906	0.17040689174448767	0.044143152316551845	0.4928867866061879
vMAG_31	17008	5118	300.91721542803384	67.44968555788475	bin_43	2613696	1006945	385.2571224809618	144510	0.042465317944085805	427	0.009605490672744084	0.2261961322270484	0.17507706314039112	0.05486435801725561	1.291980389490917
vMAG_31	17008	5118	300.91721542803384	82.45605588106754	bin_22	3443744	1332807	387.0226706747075	147730	0.02499521314505668	522	0.008912230213009934	0.3565574800778409	0.2130522631589503	0.04183119240728672	1.6735681414086963
vMAG_110	123662	21214	171.5482524947033	118.0942132789572	bin_140	316942	61988	195.5815259574307	8211	0.16674612394302765	5722	0.1459929194152567	0.8755401082974394	0.6038106753736087	0.24178591960952558	1.4500242278023618
vMAG_112	16178	5526	341.5749783656818	286.0838476554571	bin_10	4248095	7211190	1697.511472789568	1374473	0.15261133569990615	1691	0.02460506724137744	0.161226996202698	0.1685313190757571	0.1459970014850304	0.9566589586249207
vMAG_36	25244	1773	70.23451117097132	54.930887524771215	bin_53	2368909	365331	154.2190941061898	49321	0.017748645950538832	542	0.009063433176786333	0.5106549086642396	0.3561873310379307	0.02544569215972805	1.4336694884014825
vMAG_144	14165	694	48.993999294034595	22.997183342097873	bin_107	1005329	37583	37.3837818266458	887	0.0017630309163029255	23	0.001615113497868412	0.9161004965558424	0.615164710963146	0.0026254976416636034	1.4891954629867012
vMAG_49	13997	7258	518.5396870758019	265.75433729319394	bin_64	2161147	815707	377.44170109668613	86492	0.03712046461034819	1209	0.03996750425834642	1.076697306401832	0.7040937355915473	0.056764465067662556	1.5291959748757602
vMAG_49	13997	7258	518.5396870758019	75.8356049347824	bin_29	3121469	1594980	510.9709563029458	186067	0.03826710807729947	345	0.007896326661230446	0.20634761961316447	0.14841470733186013	0.05320447550776758	1.3903448204210953
vMAG_145	24077	4713	195.74697844415832	116.2290017336248	bin_59	2285827	289342	126.58088298020805	29858	0.011467400809230381	858	0.01558983636803071	1.3594917128458686	0.9182192365635351	0.016978337794769115	1.4805742013571943
vMAG_137	11312	839	74.16902404526166	42.921888915081986	bin_43	2613696	1006945	385.2571224809618	144510	0.042465317944085805	125	0.004227810795162693	0.09955914614202259	0.11141101983702599	0.03794786908285382	0.8936202746160968
vMAG_83	14196	1886	132.85432516201746	60.080618385370954	bin_59	2285827	289342	126.58088298020805	29858	0.011467400809230381	355	0.010940042373203864	0.9540123830326019	0.47464211791574445	0.023049034125424733	2.009961499459583
vMAG_143	13210	1172	88.72066616199848	55.71944802087775	bin_77	1927671	240293	124.6545702041479	23445	0.012672952408415544	233	0.00914998094304409	0.7220086249963342	0.4469908157368439	0.02047017661416771	1.6152650112198303
vMAG_54	51574	5102	98.92581533330748	49.203162465103425	bin_57	2292188	273896	119.49107141299056	18592	0.007148463686312588	663	0.00560831602532174	0.7845484388568942	0.4117727114107562	0.0136199312628254	1.905294880199777
vMAG_35	33882	15520	458.0603270172953	342.0888045080835	bin_45	2524531	1253993	496.7231537263753	212740	0.06691722449086618	4404	0.05148699724044713	0.7694132210679899	0.6886910786053803	0.07476065661357167	1.1172109599939561
vMAG_34	40933	5212	127.33002711748468	70.93112923664228	bin_65	2154335	443516	205.87141739794416	27673	0.01198290209792534	615	0.0069741021323059225	0.5820044322579739	0.34454092818302323	0.020241723295646365	1.6892171137032752
vMAG_82	25545	11219	439.1857506361323	391.8483643400223	bin_21	3468834	3884744	1119.8990784799735	838271	0.1404412336122439	4321	0.04876349690492685	0.3472163811915959	0.34989613963418353	0.1393656327729397	0.9923412746268385
vMAG_124	11804	2751	233.05659098610641	99.57872523951819	bin_65	2154335	443516	205.87141739794416	27673	0.01198290209792534	94	0.0036964549322784012	0.3084774374413346	0.483693785655709	0.007642138563486778	0.6377535676278203
